<svg width="705" height="125" viewBox="0 0 705 125" fill="none" xmlns="http://www.w3.org/2000/svg">
<g filter="url(#filter0_d_1269_2834)">
<rect x="20" y="15" width="665" height="85" rx="20" fill="#40B3E0"/>
</g>
<path d="M101 17C78.3561 17 60 35.58 60 58.5C60 81.42 78.3561 100 101 100C123.644 100 142 81.42 142 58.5C142 35.58 123.644 17 101 17Z" fill="#40B3E0"/>
<path d="M120.95 40.8722L113.627 78.2446C113.627 78.2446 112.603 80.8364 109.786 79.5924L92.8871 66.4784L86.7422 63.4722L76.3981 59.9473C76.3981 59.9473 74.8106 59.3773 74.6568 58.1333C74.5031 56.8893 76.4493 56.2156 76.4493 56.2156L117.57 39.8879C117.57 39.8879 120.95 38.3848 120.95 40.8729" fill="white"/>
<path d="M91.5885 77.8244C91.5885 77.8244 91.0952 77.7777 90.4802 75.8077C89.8662 73.8381 86.7422 63.4715 86.7422 63.4715L111.579 47.507C111.579 47.507 113.013 46.6258 112.961 47.507C112.961 47.507 113.217 47.6626 112.449 48.3882C111.681 49.1142 92.9386 66.1671 92.9386 66.1671" fill="#D2E5F1"/>
<path d="M99.3668 71.506L92.6828 77.6746C92.6828 77.6746 92.1601 78.076 91.5886 77.8244L92.8686 66.3665" fill="#B5CFE4"/>
<path d="M200.14 69.1903C198.629 69.1903 197.285 68.9844 196.106 68.5724C194.927 68.1652 193.93 67.5663 193.116 66.7756C192.301 65.9896 191.681 65.0284 191.255 63.892C190.829 62.7557 190.616 61.4631 190.616 60.0142C190.616 58.5843 190.829 57.2869 191.255 56.1222C191.686 54.9574 192.313 53.9583 193.137 53.125C193.961 52.2869 194.967 51.643 196.155 51.1932C197.349 50.7434 198.707 50.5185 200.232 50.5185C201.643 50.5185 202.903 50.7244 204.01 51.1364C205.123 51.5483 206.065 52.1354 206.837 52.8977C207.614 53.6553 208.203 54.5573 208.606 55.6037C209.013 56.6454 209.214 57.7983 209.209 59.0625C209.214 59.9337 209.138 60.7339 208.982 61.4631C208.826 62.1922 208.58 62.8291 208.243 63.3736C207.912 63.9134 207.476 64.3419 206.937 64.6591C206.397 64.9716 205.743 65.1491 204.976 65.1918C204.427 65.2344 203.982 65.1941 203.641 65.071C203.3 64.9479 203.04 64.7656 202.86 64.5241C202.685 64.2779 202.571 63.9915 202.519 63.6648H202.434C202.32 63.9489 202.098 64.2069 201.766 64.4389C201.435 64.6662 201.03 64.8437 200.552 64.9716C200.078 65.0947 199.574 65.1397 199.039 65.1065C198.48 65.0734 197.95 64.9432 197.448 64.7159C196.951 64.4886 196.508 64.1596 196.12 63.7287C195.736 63.2978 195.433 62.7652 195.211 62.1307C194.993 61.4962 194.882 60.7623 194.877 59.929C194.882 59.1051 194.998 58.3878 195.225 57.777C195.457 57.1662 195.762 56.6525 196.141 56.2358C196.525 55.8191 196.951 55.4924 197.42 55.2557C197.888 55.0189 198.359 54.8674 198.833 54.8011C199.368 54.7206 199.875 54.7206 200.353 54.8011C200.831 54.8816 201.233 55.0118 201.56 55.1918C201.892 55.3717 202.098 55.5658 202.178 55.7741H202.278V54.9787H204.501V61.9105C204.505 62.2372 204.579 62.4905 204.721 62.6705C204.863 62.8504 205.055 62.9403 205.296 62.9403C205.623 62.9403 205.895 62.7959 206.113 62.5071C206.335 62.2183 206.501 61.7756 206.61 61.179C206.724 60.5824 206.78 59.8224 206.78 58.8991C206.78 58.009 206.662 57.2277 206.425 56.5554C206.193 55.8783 205.867 55.303 205.445 54.8295C205.028 54.3513 204.543 53.9631 203.989 53.6648C203.435 53.3665 202.834 53.1487 202.185 53.0114C201.541 52.8741 200.878 52.8054 200.197 52.8054C199.018 52.8054 197.988 52.9853 197.107 53.3452C196.226 53.7003 195.492 54.1998 194.905 54.8438C194.318 55.4877 193.878 56.2429 193.584 57.1094C193.296 57.9711 193.149 58.911 193.144 59.929C193.149 61.0511 193.305 62.0455 193.613 62.9119C193.925 63.7737 194.385 64.4981 194.991 65.0852C195.597 65.6723 196.345 66.1174 197.235 66.4205C198.125 66.7235 199.148 66.875 200.303 66.875C200.848 66.875 201.38 66.8348 201.901 66.7543C202.422 66.6785 202.893 66.5838 203.314 66.4702C203.736 66.3613 204.074 66.2547 204.33 66.1506L205.033 68.2102C204.735 68.3807 204.33 68.5393 203.819 68.6861C203.312 68.8376 202.739 68.9583 202.1 69.0483C201.465 69.143 200.812 69.1903 200.14 69.1903ZM199.813 62.7699C200.391 62.7699 200.85 62.6586 201.191 62.4361C201.537 62.2135 201.783 61.8845 201.93 61.4489C202.081 61.0085 202.152 60.4664 202.143 59.8224C202.138 59.2543 202.064 58.7737 201.922 58.3807C201.785 57.983 201.546 57.6823 201.205 57.4787C200.869 57.2704 200.4 57.1662 199.799 57.1662C199.273 57.1662 198.826 57.2775 198.456 57.5C198.092 57.7225 197.813 58.035 197.618 58.4375C197.429 58.8352 197.332 59.304 197.327 59.8438C197.332 60.3456 197.412 60.8215 197.569 61.2713C197.725 61.7164 197.983 62.0786 198.343 62.358C198.703 62.6326 199.193 62.7699 199.813 62.7699ZM211.221 65V54.0909H214.247V65H211.221ZM212.741 52.6847C212.291 52.6847 211.905 52.5355 211.583 52.2372C211.266 51.9342 211.107 51.572 211.107 51.1506C211.107 50.7339 211.266 50.3764 211.583 50.0781C211.905 49.7751 212.291 49.6236 212.741 49.6236C213.191 49.6236 213.574 49.7751 213.892 50.0781C214.213 50.3764 214.374 50.7339 214.374 51.1506C214.374 51.572 214.213 51.9342 213.892 52.2372C213.574 52.5355 213.191 52.6847 212.741 52.6847ZM220.69 65.1776C219.862 65.1776 219.111 64.9645 218.439 64.5384C217.771 64.1075 217.241 63.4754 216.848 62.642C216.46 61.804 216.265 60.7765 216.265 59.5597C216.265 58.3097 216.467 57.2704 216.869 56.4418C217.272 55.6084 217.807 54.9858 218.474 54.5739C219.147 54.1572 219.883 53.9489 220.683 53.9489C221.294 53.9489 221.803 54.053 222.21 54.2614C222.622 54.465 222.953 54.7206 223.204 55.0284C223.46 55.3314 223.654 55.6297 223.787 55.9233H223.879V50.4545H226.898V65H223.915V63.2528H223.787C223.645 63.5559 223.443 63.8565 223.183 64.1548C222.927 64.4484 222.594 64.6922 222.182 64.8864C221.774 65.0805 221.277 65.1776 220.69 65.1776ZM221.649 62.7699C222.137 62.7699 222.549 62.6373 222.885 62.3722C223.226 62.1023 223.486 61.7259 223.666 61.2429C223.851 60.7599 223.943 60.1941 223.943 59.5455C223.943 58.8968 223.853 58.3333 223.673 57.8551C223.493 57.3769 223.233 57.0076 222.892 56.7472C222.551 56.4867 222.137 56.3565 221.649 56.3565C221.152 56.3565 220.733 56.4915 220.392 56.7614C220.051 57.0312 219.793 57.4053 219.618 57.8835C219.443 58.3617 219.355 58.9157 219.355 59.5455C219.355 60.1799 219.443 60.741 219.618 61.2287C219.798 61.7116 220.056 62.0904 220.392 62.3651C220.733 62.6349 221.152 62.7699 221.649 62.7699ZM236.381 60.3551V54.0909H239.406V65H236.502V63.0185H236.388C236.142 63.6577 235.732 64.1714 235.159 64.5597C234.591 64.9479 233.897 65.142 233.078 65.142C232.349 65.142 231.708 64.9763 231.154 64.6449C230.6 64.3134 230.166 63.8423 229.854 63.2315C229.546 62.6207 229.39 61.8892 229.385 61.0369V54.0909H232.411V60.4972C232.415 61.1411 232.588 61.6501 232.929 62.0241C233.27 62.3982 233.727 62.5852 234.3 62.5852C234.664 62.5852 235.005 62.5024 235.323 62.3366C235.64 62.1662 235.896 61.9152 236.09 61.5838C236.289 61.2524 236.386 60.8428 236.381 60.3551ZM244.568 61.8608L244.575 58.2315H245.015L248.51 54.0909H251.983L247.288 59.5739H246.571L244.568 61.8608ZM241.827 65V50.4545H244.852V65H241.827ZM248.645 65L245.434 60.2486L247.452 58.1108L252.189 65H248.645ZM256.578 65.206C255.882 65.206 255.262 65.0852 254.717 64.8438C254.173 64.5975 253.742 64.2353 253.425 63.7571C253.112 63.2741 252.956 62.6728 252.956 61.9531C252.956 61.3471 253.067 60.8381 253.29 60.4261C253.512 60.0142 253.815 59.6828 254.199 59.4318C254.582 59.1809 255.018 58.9915 255.506 58.8636C255.998 58.7358 256.514 58.6458 257.054 58.5938C257.688 58.5275 258.2 58.4659 258.588 58.4091C258.976 58.3475 259.258 58.2576 259.433 58.1392C259.608 58.0208 259.696 57.8456 259.696 57.6136V57.571C259.696 57.1212 259.554 56.7732 259.27 56.527C258.99 56.2808 258.593 56.1577 258.077 56.1577C257.532 56.1577 257.099 56.2784 256.777 56.5199C256.455 56.7566 256.242 57.0549 256.138 57.4148L253.339 57.1875C253.481 56.5246 253.761 55.9517 254.177 55.4688C254.594 54.9811 255.131 54.607 255.79 54.3466C256.452 54.0814 257.22 53.9489 258.091 53.9489C258.697 53.9489 259.277 54.0199 259.831 54.1619C260.39 54.304 260.884 54.5241 261.315 54.8224C261.751 55.1207 262.094 55.5043 262.345 55.973C262.596 56.437 262.721 56.9934 262.721 57.642V65H259.852V63.4872H259.767C259.592 63.8281 259.357 64.1288 259.064 64.3892C258.77 64.6449 258.417 64.8461 258.006 64.9929C257.594 65.1349 257.118 65.206 256.578 65.206ZM257.444 63.1179C257.89 63.1179 258.282 63.0303 258.623 62.8551C258.964 62.6752 259.232 62.4337 259.426 62.1307C259.62 61.8277 259.717 61.4844 259.717 61.1009V59.9432C259.622 60.0047 259.492 60.0616 259.327 60.1136C259.166 60.161 258.983 60.206 258.78 60.2486C258.576 60.2865 258.372 60.322 258.169 60.3551C257.965 60.3835 257.781 60.4096 257.615 60.4332C257.26 60.4853 256.95 60.5682 256.684 60.6818C256.419 60.7955 256.213 60.9493 256.067 61.1435C255.92 61.3329 255.846 61.5696 255.846 61.8537C255.846 62.2656 255.996 62.5805 256.294 62.7983C256.597 63.0114 256.98 63.1179 257.444 63.1179ZM273.4 65V67.294H263.847V65H273.4ZM275.518 69.0909V54.0909H278.501V55.9233H278.636C278.768 55.6297 278.96 55.3314 279.211 55.0284C279.467 54.7206 279.798 54.465 280.205 54.2614C280.617 54.053 281.129 53.9489 281.74 53.9489C282.535 53.9489 283.269 54.1572 283.941 54.5739C284.614 54.9858 285.151 55.6084 285.553 56.4418C285.956 57.2704 286.157 58.3097 286.157 59.5597C286.157 60.7765 285.961 61.804 285.568 62.642C285.179 63.4754 284.649 64.1075 283.977 64.5384C283.309 64.9645 282.561 65.1776 281.732 65.1776C281.145 65.1776 280.646 65.0805 280.234 64.8864C279.827 64.6922 279.493 64.4484 279.232 64.1548C278.972 63.8565 278.773 63.5559 278.636 63.2528H278.544V69.0909H275.518ZM278.48 59.5455C278.48 60.1941 278.57 60.7599 278.749 61.2429C278.929 61.7259 279.19 62.1023 279.531 62.3722C279.872 62.6373 280.286 62.7699 280.774 62.7699C281.266 62.7699 281.683 62.6349 282.024 62.3651C282.365 62.0904 282.623 61.7116 282.798 61.2287C282.978 60.741 283.068 60.1799 283.068 59.5455C283.068 58.9157 282.98 58.3617 282.805 57.8835C282.63 57.4053 282.372 57.0312 282.031 56.7614C281.69 56.4915 281.271 56.3565 280.774 56.3565C280.281 56.3565 279.865 56.4867 279.524 56.7472C279.187 57.0076 278.929 57.3769 278.749 57.8551C278.57 58.3333 278.48 58.8968 278.48 59.5455ZM293.146 65.2131C292.024 65.2131 291.058 64.9858 290.248 64.5312C289.443 64.072 288.823 63.4233 288.387 62.5852C287.952 61.7424 287.734 60.7457 287.734 59.5952C287.734 58.473 287.952 57.4882 288.387 56.6406C288.823 55.7931 289.436 55.1326 290.227 54.6591C291.022 54.1856 291.955 53.9489 293.025 53.9489C293.745 53.9489 294.415 54.0649 295.035 54.2969C295.66 54.5241 296.204 54.8674 296.669 55.3267C297.137 55.786 297.502 56.3636 297.762 57.0597C298.023 57.7509 298.153 58.5606 298.153 59.4886V60.3196H288.941V58.4446H295.305C295.305 58.009 295.21 57.6231 295.021 57.2869C294.831 56.9508 294.569 56.688 294.232 56.4986C293.901 56.3045 293.515 56.2074 293.075 56.2074C292.615 56.2074 292.208 56.3139 291.853 56.527C291.503 56.7353 291.228 57.017 291.029 57.3722C290.83 57.7225 290.729 58.1132 290.724 58.544V60.3267C290.724 60.8665 290.823 61.3329 291.022 61.7259C291.226 62.1188 291.512 62.4219 291.882 62.6349C292.251 62.848 292.689 62.9545 293.195 62.9545C293.532 62.9545 293.839 62.9072 294.119 62.8125C294.398 62.7178 294.637 62.5758 294.836 62.3864C295.035 62.197 295.186 61.965 295.291 61.6903L298.089 61.875C297.947 62.5473 297.656 63.1345 297.215 63.6364C296.78 64.1335 296.216 64.5218 295.525 64.8011C294.838 65.0758 294.045 65.2131 293.146 65.2131ZM303.153 58.6932V65H300.127V54.0909H303.011V56.0156H303.139C303.38 55.3812 303.785 54.8793 304.353 54.5099C304.921 54.1359 305.61 53.9489 306.42 53.9489C307.177 53.9489 307.838 54.1146 308.401 54.446C308.965 54.7775 309.403 55.2509 309.715 55.8665C310.028 56.4773 310.184 57.2064 310.184 58.054V65H307.159V58.5938C307.163 57.9261 306.993 57.4053 306.647 57.0312C306.302 56.6525 305.826 56.4631 305.22 56.4631C304.812 56.4631 304.453 56.5507 304.14 56.7259C303.832 56.901 303.591 57.1567 303.416 57.4929C303.245 57.8243 303.158 58.2244 303.153 58.6932ZM321.645 57.2017L318.876 57.3722C318.828 57.1354 318.726 56.9223 318.57 56.733C318.414 56.5388 318.208 56.3849 317.952 56.2713C317.701 56.1529 317.401 56.0938 317.05 56.0938C316.581 56.0938 316.186 56.1932 315.864 56.392C315.542 56.5862 315.381 56.8466 315.381 57.1733C315.381 57.4337 315.485 57.6539 315.694 57.8338C315.902 58.0137 316.26 58.1581 316.766 58.267L318.741 58.6648C319.801 58.8826 320.592 59.233 321.113 59.7159C321.634 60.1989 321.894 60.8333 321.894 61.6193C321.894 62.3343 321.683 62.9616 321.262 63.5014C320.845 64.0412 320.272 64.4626 319.543 64.7656C318.819 65.0639 317.983 65.2131 317.036 65.2131C315.592 65.2131 314.441 64.9124 313.584 64.3111C312.732 63.705 312.233 62.8812 312.086 61.8395L315.062 61.6832C315.152 62.1236 315.369 62.4598 315.715 62.6918C316.061 62.919 316.503 63.0327 317.043 63.0327C317.573 63.0327 318 62.9309 318.322 62.7273C318.648 62.5189 318.814 62.2514 318.819 61.9247C318.814 61.6501 318.698 61.4252 318.471 61.25C318.243 61.0701 317.893 60.9328 317.42 60.8381L315.53 60.4616C314.465 60.2486 313.672 59.8793 313.151 59.3537C312.635 58.8281 312.377 58.1581 312.377 57.3438C312.377 56.643 312.566 56.0393 312.945 55.5327C313.329 55.026 313.866 54.6354 314.557 54.3608C315.253 54.0862 316.068 53.9489 317.001 53.9489C318.378 53.9489 319.463 54.2401 320.253 54.8224C321.049 55.4048 321.513 56.1979 321.645 57.2017Z" fill="white"/>
<path d="M406.114 34.5455H408.636L414.568 49.0341H414.773L420.705 34.5455H423.227V52H421.25V38.7386H421.08L415.625 52H413.716L408.261 38.7386H408.091V52H406.114V34.5455ZM431.045 52.3068C430.215 52.3068 429.462 52.1506 428.786 51.8381C428.11 51.5199 427.573 51.0625 427.175 50.4659C426.778 49.8636 426.579 49.1364 426.579 48.2841C426.579 47.5341 426.727 46.9261 427.022 46.4602C427.317 45.9886 427.712 45.6193 428.207 45.3523C428.701 45.0852 429.246 44.8864 429.843 44.7557C430.445 44.6193 431.05 44.5114 431.658 44.4318C432.454 44.3295 433.099 44.2528 433.593 44.2017C434.093 44.1449 434.457 44.0511 434.684 43.9205C434.917 43.7898 435.033 43.5625 435.033 43.2386V43.1705C435.033 42.3295 434.803 41.6761 434.343 41.2102C433.888 40.7443 433.198 40.5114 432.272 40.5114C431.312 40.5114 430.559 40.7216 430.013 41.142C429.468 41.5625 429.085 42.0114 428.863 42.4886L426.954 41.8068C427.295 41.0114 427.749 40.392 428.317 39.9489C428.891 39.5 429.516 39.1875 430.192 39.0114C430.874 38.8295 431.545 38.7386 432.204 38.7386C432.624 38.7386 433.107 38.7898 433.653 38.892C434.204 38.9886 434.735 39.1903 435.246 39.4972C435.763 39.804 436.192 40.267 436.533 40.8864C436.874 41.5057 437.045 42.3352 437.045 43.375V52H435.033V50.2273H434.931C434.795 50.5114 434.567 50.8153 434.249 51.1392C433.931 51.4631 433.508 51.7386 432.979 51.9659C432.451 52.1932 431.806 52.3068 431.045 52.3068ZM431.352 50.5C432.147 50.5 432.817 50.3438 433.363 50.0312C433.914 49.7188 434.329 49.3153 434.607 48.821C434.891 48.3267 435.033 47.8068 435.033 47.2614V45.4205C434.948 45.5227 434.761 45.6165 434.471 45.7017C434.187 45.7812 433.857 45.8523 433.482 45.9148C433.113 45.9716 432.752 46.0227 432.4 46.0682C432.053 46.108 431.772 46.142 431.556 46.1705C431.033 46.2386 430.545 46.3494 430.09 46.5028C429.641 46.6506 429.278 46.875 428.999 47.1761C428.727 47.4716 428.59 47.875 428.59 48.3864C428.59 49.0852 428.849 49.6136 429.366 49.9716C429.888 50.3239 430.55 50.5 431.352 50.5ZM442.591 47.2273L442.557 44.7386H442.966L448.693 38.9091H451.182L445.08 45.0795H444.909L442.591 47.2273ZM440.716 52V34.5455H442.727V52H440.716ZM449.034 52L443.92 45.5227L445.352 44.125L451.591 52H449.034ZM458.72 52.2727C457.459 52.2727 456.371 51.9943 455.456 51.4375C454.547 50.875 453.845 50.0909 453.351 49.0852C452.862 48.0739 452.618 46.8977 452.618 45.5568C452.618 44.2159 452.862 43.0341 453.351 42.0114C453.845 40.983 454.533 40.1818 455.413 39.608C456.3 39.0284 457.334 38.7386 458.516 38.7386C459.197 38.7386 459.871 38.8523 460.536 39.0795C461.2 39.3068 461.805 39.6761 462.351 40.1875C462.896 40.6932 463.331 41.3636 463.655 42.1989C463.979 43.0341 464.141 44.0625 464.141 45.2841V46.1364H454.05V44.3977H462.095C462.095 43.6591 461.947 43 461.652 42.4205C461.362 41.8409 460.947 41.3835 460.408 41.0483C459.874 40.7131 459.243 40.5455 458.516 40.5455C457.714 40.5455 457.021 40.7443 456.436 41.142C455.857 41.5341 455.411 42.0455 455.098 42.6761C454.786 43.3068 454.629 43.983 454.629 44.7045V45.8636C454.629 46.8523 454.8 47.6903 455.141 48.3778C455.487 49.0597 455.967 49.5795 456.581 49.9375C457.195 50.2898 457.908 50.4659 458.72 50.4659C459.249 50.4659 459.726 50.392 460.152 50.2443C460.584 50.0909 460.956 49.8636 461.268 49.5625C461.581 49.2557 461.822 48.875 461.993 48.4205L463.936 48.9659C463.732 49.625 463.388 50.2045 462.905 50.7045C462.422 51.1989 461.825 51.5852 461.115 51.8636C460.405 52.1364 459.607 52.2727 458.72 52.2727ZM473.95 52V38.9091H475.962V52H473.95ZM474.973 36.7273C474.581 36.7273 474.243 36.5938 473.959 36.3267C473.68 36.0597 473.541 35.7386 473.541 35.3636C473.541 34.9886 473.68 34.6676 473.959 34.4006C474.243 34.1335 474.581 34 474.973 34C475.365 34 475.7 34.1335 475.979 34.4006C476.263 34.6676 476.405 34.9886 476.405 35.3636C476.405 35.7386 476.263 36.0597 475.979 36.3267C475.7 36.5938 475.365 36.7273 474.973 36.7273ZM485.339 38.9091V40.6136H478.555V38.9091H485.339ZM480.532 35.7727H482.543V48.25C482.543 48.8182 482.626 49.2443 482.79 49.5284C482.961 49.8068 483.177 49.9943 483.438 50.0909C483.705 50.1818 483.987 50.2273 484.282 50.2273C484.504 50.2273 484.685 50.2159 484.827 50.1932C484.969 50.1648 485.083 50.142 485.168 50.125L485.577 51.9318C485.441 51.983 485.251 52.0341 485.006 52.0852C484.762 52.142 484.452 52.1705 484.077 52.1705C483.509 52.1705 482.952 52.0483 482.407 51.804C481.867 51.5597 481.418 51.1875 481.06 50.6875C480.708 50.1875 480.532 49.5568 480.532 48.7955V35.7727ZM500.603 52.2727C499.342 52.2727 498.254 51.9943 497.339 51.4375C496.43 50.875 495.728 50.0909 495.234 49.0852C494.745 48.0739 494.501 46.8977 494.501 45.5568C494.501 44.2159 494.745 43.0341 495.234 42.0114C495.728 40.983 496.415 40.1818 497.296 39.608C498.183 39.0284 499.217 38.7386 500.398 38.7386C501.08 38.7386 501.754 38.8523 502.418 39.0795C503.083 39.3068 503.688 39.6761 504.234 40.1875C504.779 40.6932 505.214 41.3636 505.538 42.1989C505.862 43.0341 506.023 44.0625 506.023 45.2841V46.1364H495.933V44.3977H503.978C503.978 43.6591 503.83 43 503.535 42.4205C503.245 41.8409 502.83 41.3835 502.29 41.0483C501.756 40.7131 501.126 40.5455 500.398 40.5455C499.597 40.5455 498.904 40.7443 498.319 41.142C497.739 41.5341 497.293 42.0455 496.981 42.6761C496.668 43.3068 496.512 43.983 496.512 44.7045V45.8636C496.512 46.8523 496.683 47.6903 497.023 48.3778C497.37 49.0597 497.85 49.5795 498.464 49.9375C499.077 50.2898 499.79 50.4659 500.603 50.4659C501.131 50.4659 501.609 50.392 502.035 50.2443C502.467 50.0909 502.839 49.8636 503.151 49.5625C503.464 49.2557 503.705 48.875 503.876 48.4205L505.819 48.9659C505.614 49.625 505.271 50.2045 504.788 50.7045C504.305 51.1989 503.708 51.5852 502.998 51.8636C502.288 52.1364 501.489 52.2727 500.603 52.2727ZM512.935 52.3068C512.106 52.3068 511.353 52.1506 510.677 51.8381C510.001 51.5199 509.464 51.0625 509.066 50.4659C508.668 49.8636 508.469 49.1364 508.469 48.2841C508.469 47.5341 508.617 46.9261 508.913 46.4602C509.208 45.9886 509.603 45.6193 510.097 45.3523C510.592 45.0852 511.137 44.8864 511.734 44.7557C512.336 44.6193 512.941 44.5114 513.549 44.4318C514.344 44.3295 514.989 44.2528 515.484 44.2017C515.984 44.1449 516.347 44.0511 516.575 43.9205C516.808 43.7898 516.924 43.5625 516.924 43.2386V43.1705C516.924 42.3295 516.694 41.6761 516.234 41.2102C515.779 40.7443 515.089 40.5114 514.163 40.5114C513.202 40.5114 512.45 40.7216 511.904 41.142C511.359 41.5625 510.975 42.0114 510.754 42.4886L508.844 41.8068C509.185 41.0114 509.64 40.392 510.208 39.9489C510.782 39.5 511.407 39.1875 512.083 39.0114C512.765 38.8295 513.435 38.7386 514.094 38.7386C514.515 38.7386 514.998 38.7898 515.543 38.892C516.094 38.9886 516.626 39.1903 517.137 39.4972C517.654 39.804 518.083 40.267 518.424 40.8864C518.765 41.5057 518.935 42.3352 518.935 43.375V52H516.924V50.2273H516.822C516.685 50.5114 516.458 50.8153 516.14 51.1392C515.822 51.4631 515.398 51.7386 514.87 51.9659C514.342 52.1932 513.697 52.3068 512.935 52.3068ZM513.242 50.5C514.038 50.5 514.708 50.3438 515.254 50.0312C515.805 49.7188 516.219 49.3153 516.498 48.821C516.782 48.3267 516.924 47.8068 516.924 47.2614V45.4205C516.839 45.5227 516.651 45.6165 516.362 45.7017C516.077 45.7812 515.748 45.8523 515.373 45.9148C515.004 45.9716 514.643 46.0227 514.29 46.0682C513.944 46.108 513.663 46.142 513.447 46.1705C512.924 46.2386 512.435 46.3494 511.981 46.5028C511.532 46.6506 511.168 46.875 510.89 47.1761C510.617 47.4716 510.481 47.875 510.481 48.3864C510.481 49.0852 510.739 49.6136 511.256 49.9716C511.779 50.3239 512.441 50.5 513.242 50.5ZM531.879 41.8409L530.072 42.3523C529.959 42.0511 529.791 41.7585 529.57 41.4744C529.354 41.1847 529.058 40.946 528.683 40.7585C528.308 40.571 527.828 40.4773 527.243 40.4773C526.442 40.4773 525.774 40.6619 525.24 41.0312C524.712 41.3949 524.447 41.858 524.447 42.4205C524.447 42.9205 524.629 43.3153 524.993 43.6051C525.357 43.8949 525.925 44.1364 526.697 44.3295L528.641 44.8068C529.811 45.0909 530.683 45.5256 531.257 46.1108C531.831 46.6903 532.118 47.4375 532.118 48.3523C532.118 49.1023 531.902 49.7727 531.47 50.3636C531.044 50.9545 530.447 51.4205 529.68 51.7614C528.913 52.1023 528.021 52.2727 527.004 52.2727C525.669 52.2727 524.564 51.983 523.689 51.4034C522.814 50.8239 522.26 49.9773 522.027 48.8636L523.936 48.3864C524.118 49.0909 524.462 49.6193 524.967 49.9716C525.479 50.3239 526.146 50.5 526.97 50.5C527.908 50.5 528.652 50.3011 529.203 49.9034C529.76 49.5 530.038 49.017 530.038 48.4545C530.038 48 529.879 47.6193 529.561 47.3125C529.243 47 528.754 46.767 528.095 46.6136L525.913 46.1023C524.714 45.8182 523.834 45.3778 523.271 44.7812C522.714 44.179 522.436 43.4261 522.436 42.5227C522.436 41.7841 522.643 41.1307 523.058 40.5625C523.479 39.9943 524.05 39.5483 524.771 39.2244C525.499 38.9006 526.322 38.7386 527.243 38.7386C528.538 38.7386 529.555 39.0227 530.294 39.5909C531.038 40.1591 531.567 40.9091 531.879 41.8409ZM535.146 52V38.9091H537.157V52H535.146ZM536.168 36.7273C535.776 36.7273 535.438 36.5938 535.154 36.3267C534.876 36.0597 534.737 35.7386 534.737 35.3636C534.737 34.9886 534.876 34.6676 535.154 34.4006C535.438 34.1335 535.776 34 536.168 34C536.56 34 536.896 34.1335 537.174 34.4006C537.458 34.6676 537.6 34.9886 537.6 35.3636C537.6 35.7386 537.458 36.0597 537.174 36.3267C536.896 36.5938 536.56 36.7273 536.168 36.7273ZM546.33 52.2727C545.068 52.2727 543.98 51.9943 543.065 51.4375C542.156 50.875 541.455 50.0909 540.96 49.0852C540.472 48.0739 540.227 46.8977 540.227 45.5568C540.227 44.2159 540.472 43.0341 540.96 42.0114C541.455 40.983 542.142 40.1818 543.023 39.608C543.909 39.0284 544.943 38.7386 546.125 38.7386C546.807 38.7386 547.48 38.8523 548.145 39.0795C548.81 39.3068 549.415 39.6761 549.96 40.1875C550.506 40.6932 550.94 41.3636 551.264 42.1989C551.588 43.0341 551.75 44.0625 551.75 45.2841V46.1364H541.659V44.3977H549.705C549.705 43.6591 549.557 43 549.261 42.4205C548.972 41.8409 548.557 41.3835 548.017 41.0483C547.483 40.7131 546.852 40.5455 546.125 40.5455C545.324 40.5455 544.631 40.7443 544.045 41.142C543.466 41.5341 543.02 42.0455 542.707 42.6761C542.395 43.3068 542.239 43.983 542.239 44.7045V45.8636C542.239 46.8523 542.409 47.6903 542.75 48.3778C543.097 49.0597 543.577 49.5795 544.19 49.9375C544.804 50.2898 545.517 50.4659 546.33 50.4659C546.858 50.4659 547.335 50.392 547.761 50.2443C548.193 50.0909 548.565 49.8636 548.878 49.5625C549.19 49.2557 549.432 48.875 549.602 48.4205L551.545 48.9659C551.341 49.625 550.997 50.2045 550.514 50.7045C550.031 51.1989 549.435 51.5852 548.724 51.8636C548.014 52.1364 547.216 52.2727 546.33 52.2727ZM554.81 52V38.9091H556.753V40.8864H556.889C557.128 40.2386 557.56 39.7131 558.185 39.3097C558.81 38.9062 559.514 38.7045 560.298 38.7045C560.446 38.7045 560.631 38.7074 560.852 38.7131C561.074 38.7187 561.241 38.7273 561.355 38.7386V40.7841C561.287 40.767 561.131 40.7415 560.886 40.7074C560.648 40.6676 560.395 40.6477 560.128 40.6477C559.491 40.6477 558.923 40.7812 558.423 41.0483C557.929 41.3097 557.537 41.6733 557.247 42.1392C556.963 42.5994 556.821 43.125 556.821 43.7159V52H554.81ZM576.183 38.9091V40.6136H569.398V38.9091H576.183ZM571.376 35.7727H573.387V48.25C573.387 48.8182 573.469 49.2443 573.634 49.5284C573.805 49.8068 574.021 49.9943 574.282 50.0909C574.549 50.1818 574.83 50.2273 575.126 50.2273C575.347 50.2273 575.529 50.2159 575.671 50.1932C575.813 50.1648 575.927 50.142 576.012 50.125L576.421 51.9318C576.285 51.983 576.094 52.0341 575.85 52.0852C575.606 52.142 575.296 52.1705 574.921 52.1705C574.353 52.1705 573.796 52.0483 573.251 51.804C572.711 51.5597 572.262 51.1875 571.904 50.6875C571.552 50.1875 571.376 49.5568 571.376 48.7955V35.7727ZM584.386 52.2727C583.204 52.2727 582.167 51.9915 581.275 51.429C580.388 50.8665 579.695 50.0795 579.195 49.0682C578.701 48.0568 578.454 46.875 578.454 45.5227C578.454 44.1591 578.701 42.9687 579.195 41.9517C579.695 40.9347 580.388 40.1449 581.275 39.5824C582.167 39.0199 583.204 38.7386 584.386 38.7386C585.567 38.7386 586.602 39.0199 587.488 39.5824C588.38 40.1449 589.073 40.9347 589.567 41.9517C590.067 42.9687 590.317 44.1591 590.317 45.5227C590.317 46.875 590.067 48.0568 589.567 49.0682C589.073 50.0795 588.38 50.8665 587.488 51.429C586.602 51.9915 585.567 52.2727 584.386 52.2727ZM584.386 50.4659C585.283 50.4659 586.022 50.2358 586.602 49.7756C587.181 49.3153 587.61 48.7102 587.888 47.9602C588.167 47.2102 588.306 46.3977 588.306 45.5227C588.306 44.6477 588.167 43.8324 587.888 43.0767C587.61 42.321 587.181 41.7102 586.602 41.2443C586.022 40.7784 585.283 40.5455 584.386 40.5455C583.488 40.5455 582.749 40.7784 582.17 41.2443C581.59 41.7102 581.161 42.321 580.883 43.0767C580.604 43.8324 580.465 44.6477 580.465 45.5227C580.465 46.3977 580.604 47.2102 580.883 47.9602C581.161 48.7102 581.59 49.3153 582.17 49.7756C582.749 50.2358 583.488 50.4659 584.386 50.4659ZM409.693 82.3068C408.864 82.3068 408.111 82.1506 407.435 81.8381C406.759 81.5199 406.222 81.0625 405.824 80.4659C405.426 79.8636 405.227 79.1364 405.227 78.2841C405.227 77.5341 405.375 76.9261 405.67 76.4602C405.966 75.9886 406.361 75.6193 406.855 75.3523C407.349 75.0852 407.895 74.8864 408.491 74.7557C409.094 74.6193 409.699 74.5114 410.307 74.4318C411.102 74.3295 411.747 74.2528 412.241 74.2017C412.741 74.1449 413.105 74.0511 413.332 73.9205C413.565 73.7898 413.682 73.5625 413.682 73.2386V73.1705C413.682 72.3295 413.452 71.6761 412.991 71.2102C412.537 70.7443 411.847 70.5114 410.92 70.5114C409.96 70.5114 409.207 70.7216 408.662 71.142C408.116 71.5625 407.733 72.0114 407.511 72.4886L405.602 71.8068C405.943 71.0114 406.398 70.392 406.966 69.9489C407.54 69.5 408.165 69.1875 408.841 69.0114C409.523 68.8295 410.193 68.7386 410.852 68.7386C411.273 68.7386 411.756 68.7898 412.301 68.892C412.852 68.9886 413.384 69.1903 413.895 69.4972C414.412 69.804 414.841 70.267 415.182 70.8864C415.523 71.5057 415.693 72.3352 415.693 73.375V82H413.682V80.2273H413.58C413.443 80.5114 413.216 80.8153 412.898 81.1392C412.58 81.4631 412.156 81.7386 411.628 81.9659C411.099 82.1932 410.455 82.3068 409.693 82.3068ZM410 80.5C410.795 80.5 411.466 80.3438 412.011 80.0312C412.563 79.7188 412.977 79.3153 413.256 78.821C413.54 78.3267 413.682 77.8068 413.682 77.2614V75.4205C413.597 75.5227 413.409 75.6165 413.119 75.7017C412.835 75.7812 412.506 75.8523 412.131 75.9148C411.761 75.9716 411.401 76.0227 411.048 76.0682C410.702 76.108 410.42 76.142 410.205 76.1705C409.682 76.2386 409.193 76.3494 408.739 76.5028C408.29 76.6506 407.926 76.875 407.648 77.1761C407.375 77.4716 407.239 77.875 407.239 78.3864C407.239 79.0852 407.497 79.6136 408.014 79.9716C408.537 80.3239 409.199 80.5 410 80.5ZM424.683 82.2727C423.455 82.2727 422.398 81.983 421.512 81.4034C420.626 80.8239 419.944 80.0256 419.467 79.0085C418.989 77.9915 418.751 76.8295 418.751 75.5227C418.751 74.1932 418.995 73.0199 419.484 72.0028C419.978 70.9801 420.665 70.1818 421.546 69.608C422.433 69.0284 423.467 68.7386 424.648 68.7386C425.569 68.7386 426.398 68.9091 427.137 69.25C427.876 69.5909 428.481 70.0682 428.952 70.6818C429.424 71.2955 429.717 72.0114 429.83 72.8295H427.819C427.665 72.233 427.325 71.7045 426.796 71.2443C426.273 70.7784 425.569 70.5455 424.683 70.5455C423.898 70.5455 423.211 70.75 422.62 71.1591C422.035 71.5625 421.577 72.1335 421.248 72.8722C420.924 73.6051 420.762 74.4659 420.762 75.4545C420.762 76.4659 420.921 77.3466 421.239 78.0966C421.563 78.8466 422.018 79.429 422.603 79.8438C423.194 80.2585 423.887 80.4659 424.683 80.4659C425.205 80.4659 425.68 80.375 426.106 80.1932C426.532 80.0114 426.893 79.75 427.188 79.4091C427.484 79.0682 427.694 78.6591 427.819 78.1818H429.83C429.717 78.9545 429.435 79.6506 428.987 80.2699C428.543 80.8835 427.955 81.3722 427.222 81.7358C426.495 82.0938 425.648 82.2727 424.683 82.2727ZM438.089 82.2727C436.862 82.2727 435.805 81.983 434.918 81.4034C434.032 80.8239 433.35 80.0256 432.873 79.0085C432.396 77.9915 432.157 76.8295 432.157 75.5227C432.157 74.1932 432.401 73.0199 432.89 72.0028C433.384 70.9801 434.072 70.1818 434.952 69.608C435.839 69.0284 436.873 68.7386 438.055 68.7386C438.975 68.7386 439.805 68.9091 440.543 69.25C441.282 69.5909 441.887 70.0682 442.359 70.6818C442.83 71.2955 443.123 72.0114 443.237 72.8295H441.225C441.072 72.233 440.731 71.7045 440.202 71.2443C439.68 70.7784 438.975 70.5455 438.089 70.5455C437.305 70.5455 436.617 70.75 436.026 71.1591C435.441 71.5625 434.984 72.1335 434.654 72.8722C434.33 73.6051 434.168 74.4659 434.168 75.4545C434.168 76.4659 434.327 77.3466 434.646 78.0966C434.969 78.8466 435.424 79.429 436.009 79.8438C436.6 80.2585 437.293 80.4659 438.089 80.4659C438.612 80.4659 439.086 80.375 439.512 80.1932C439.938 80.0114 440.299 79.75 440.594 79.4091C440.89 79.0682 441.1 78.6591 441.225 78.1818H443.237C443.123 78.9545 442.842 79.6506 442.393 80.2699C441.95 80.8835 441.362 81.3722 440.629 81.7358C439.901 82.0938 439.055 82.2727 438.089 82.2727ZM451.665 82.2727C450.404 82.2727 449.316 81.9943 448.401 81.4375C447.492 80.875 446.79 80.0909 446.296 79.0852C445.808 78.0739 445.563 76.8977 445.563 75.5568C445.563 74.2159 445.808 73.0341 446.296 72.0114C446.79 70.983 447.478 70.1818 448.359 69.608C449.245 69.0284 450.279 68.7386 451.461 68.7386C452.143 68.7386 452.816 68.8523 453.481 69.0795C454.146 69.3068 454.751 69.6761 455.296 70.1875C455.842 70.6932 456.276 71.3636 456.6 72.1989C456.924 73.0341 457.086 74.0625 457.086 75.2841V76.1364H446.995V74.3977H455.04C455.04 73.6591 454.893 73 454.597 72.4205C454.308 71.8409 453.893 71.3835 453.353 71.0483C452.819 70.7131 452.188 70.5455 451.461 70.5455C450.66 70.5455 449.967 70.7443 449.381 71.142C448.802 71.5341 448.356 72.0455 448.043 72.6761C447.731 73.3068 447.575 73.983 447.575 74.7045V75.8636C447.575 76.8523 447.745 77.6903 448.086 78.3778C448.433 79.0597 448.913 79.5795 449.526 79.9375C450.14 80.2898 450.853 80.4659 451.665 80.4659C452.194 80.4659 452.671 80.392 453.097 80.2443C453.529 80.0909 453.901 79.8636 454.214 79.5625C454.526 79.2557 454.768 78.875 454.938 78.4205L456.881 78.9659C456.677 79.625 456.333 80.2045 455.85 80.7045C455.367 81.1989 454.771 81.5852 454.06 81.8636C453.35 82.1364 452.552 82.2727 451.665 82.2727ZM469.418 71.8409L467.612 72.3523C467.498 72.0511 467.33 71.7585 467.109 71.4744C466.893 71.1847 466.597 70.946 466.222 70.7585C465.847 70.571 465.367 70.4773 464.782 70.4773C463.981 70.4773 463.313 70.6619 462.779 71.0312C462.251 71.3949 461.987 71.858 461.987 72.4205C461.987 72.9205 462.168 73.3153 462.532 73.6051C462.896 73.8949 463.464 74.1364 464.237 74.3295L466.18 74.8068C467.35 75.0909 468.222 75.5256 468.796 76.1108C469.37 76.6903 469.657 77.4375 469.657 78.3523C469.657 79.1023 469.441 79.7727 469.009 80.3636C468.583 80.9545 467.987 81.4205 467.219 81.7614C466.452 82.1023 465.56 82.2727 464.543 82.2727C463.208 82.2727 462.103 81.983 461.228 81.4034C460.353 80.8239 459.799 79.9773 459.566 78.8636L461.475 78.3864C461.657 79.0909 462.001 79.6193 462.506 79.9716C463.018 80.3239 463.685 80.5 464.509 80.5C465.447 80.5 466.191 80.3011 466.742 79.9034C467.299 79.5 467.577 79.017 467.577 78.4545C467.577 78 467.418 77.6193 467.1 77.3125C466.782 77 466.293 76.767 465.634 76.6136L463.452 76.1023C462.254 75.8182 461.373 75.3778 460.81 74.7812C460.254 74.179 459.975 73.4261 459.975 72.5227C459.975 71.7841 460.183 71.1307 460.597 70.5625C461.018 69.9943 461.589 69.5483 462.31 69.2244C463.038 68.9006 463.862 68.7386 464.782 68.7386C466.077 68.7386 467.094 69.0227 467.833 69.5909C468.577 70.1591 469.106 70.9091 469.418 71.8409ZM481.957 71.8409L480.151 72.3523C480.037 72.0511 479.869 71.7585 479.648 71.4744C479.432 71.1847 479.136 70.946 478.761 70.7585C478.386 70.571 477.906 70.4773 477.321 70.4773C476.52 70.4773 475.852 70.6619 475.318 71.0312C474.79 71.3949 474.526 71.858 474.526 72.4205C474.526 72.9205 474.707 73.3153 475.071 73.6051C475.435 73.8949 476.003 74.1364 476.776 74.3295L478.719 74.8068C479.889 75.0909 480.761 75.5256 481.335 76.1108C481.909 76.6903 482.196 77.4375 482.196 78.3523C482.196 79.1023 481.98 79.7727 481.548 80.3636C481.122 80.9545 480.526 81.4205 479.759 81.7614C478.991 82.1023 478.099 82.2727 477.082 82.2727C475.747 82.2727 474.642 81.983 473.767 81.4034C472.892 80.8239 472.338 79.9773 472.105 78.8636L474.014 78.3864C474.196 79.0909 474.54 79.6193 475.045 79.9716C475.557 80.3239 476.224 80.5 477.048 80.5C477.986 80.5 478.73 80.3011 479.281 79.9034C479.838 79.5 480.116 79.017 480.116 78.4545C480.116 78 479.957 77.6193 479.639 77.3125C479.321 77 478.832 76.767 478.173 76.6136L475.991 76.1023C474.793 75.8182 473.912 75.3778 473.349 74.7812C472.793 74.179 472.514 73.4261 472.514 72.5227C472.514 71.7841 472.722 71.1307 473.136 70.5625C473.557 69.9943 474.128 69.5483 474.849 69.2244C475.577 68.9006 476.401 68.7386 477.321 68.7386C478.616 68.7386 479.634 69.0227 480.372 69.5909C481.116 70.1591 481.645 70.9091 481.957 71.8409ZM491.974 82V68.9091H493.985V82H491.974ZM492.996 66.7273C492.604 66.7273 492.266 66.5938 491.982 66.3267C491.704 66.0597 491.565 65.7386 491.565 65.3636C491.565 64.9886 491.704 64.6676 491.982 64.4006C492.266 64.1335 492.604 64 492.996 64C493.388 64 493.724 64.1335 494.002 64.4006C494.286 64.6676 494.428 64.9886 494.428 65.3636C494.428 65.7386 494.286 66.0597 494.002 66.3267C493.724 66.5938 493.388 66.7273 492.996 66.7273ZM499.68 74.125V82H497.669V68.9091H499.612V70.9545H499.783C500.089 70.2898 500.555 69.7557 501.18 69.3523C501.805 68.9432 502.612 68.7386 503.601 68.7386C504.487 68.7386 505.263 68.9205 505.928 69.2841C506.592 69.642 507.109 70.1875 507.479 70.9205C507.848 71.6477 508.033 72.5682 508.033 73.6818V82H506.021V73.8182C506.021 72.7898 505.754 71.9886 505.22 71.4148C504.686 70.8352 503.953 70.5455 503.021 70.5455C502.379 70.5455 501.805 70.6847 501.3 70.9631C500.8 71.2415 500.405 71.6477 500.115 72.1818C499.825 72.7159 499.68 73.3636 499.68 74.125ZM517.538 68.9091V70.6136H510.481V68.9091H517.538ZM512.594 82V67.1023C512.594 66.3523 512.771 65.7273 513.123 65.2273C513.475 64.7273 513.933 64.3523 514.495 64.1023C515.058 63.8523 515.651 63.7273 516.276 63.7273C516.771 63.7273 517.174 63.767 517.487 63.8466C517.799 63.9261 518.032 64 518.185 64.0682L517.606 65.8068C517.504 65.7727 517.362 65.7301 517.18 65.679C517.004 65.6278 516.771 65.6023 516.481 65.6023C515.816 65.6023 515.336 65.7699 515.04 66.1051C514.751 66.4403 514.606 66.9318 514.606 67.5795V82H512.594ZM525.136 82.2727C523.954 82.2727 522.917 81.9915 522.025 81.429C521.138 80.8665 520.445 80.0795 519.945 79.0682C519.451 78.0568 519.204 76.875 519.204 75.5227C519.204 74.1591 519.451 72.9687 519.945 71.9517C520.445 70.9347 521.138 70.1449 522.025 69.5824C522.917 69.0199 523.954 68.7386 525.136 68.7386C526.317 68.7386 527.352 69.0199 528.238 69.5824C529.13 70.1449 529.823 70.9347 530.317 71.9517C530.817 72.9687 531.067 74.1591 531.067 75.5227C531.067 76.875 530.817 78.0568 530.317 79.0682C529.823 80.0795 529.13 80.8665 528.238 81.429C527.352 81.9915 526.317 82.2727 525.136 82.2727ZM525.136 80.4659C526.033 80.4659 526.772 80.2358 527.352 79.7756C527.931 79.3153 528.36 78.7102 528.638 77.9602C528.917 77.2102 529.056 76.3977 529.056 75.5227C529.056 74.6477 528.917 73.8324 528.638 73.0767C528.36 72.321 527.931 71.7102 527.352 71.2443C526.772 70.7784 526.033 70.5455 525.136 70.5455C524.238 70.5455 523.499 70.7784 522.92 71.2443C522.34 71.7102 521.911 72.321 521.633 73.0767C521.354 73.8324 521.215 74.6477 521.215 75.5227C521.215 76.3977 521.354 77.2102 521.633 77.9602C521.911 78.7102 522.34 79.3153 522.92 79.7756C523.499 80.2358 524.238 80.4659 525.136 80.4659ZM534.138 82V68.9091H536.081V70.8864H536.217C536.456 70.2386 536.888 69.7131 537.513 69.3097C538.138 68.9062 538.842 68.7045 539.626 68.7045C539.774 68.7045 539.959 68.7074 540.18 68.7131C540.402 68.7187 540.57 68.7273 540.683 68.7386V70.7841C540.615 70.767 540.459 70.7415 540.214 70.7074C539.976 70.6676 539.723 70.6477 539.456 70.6477C538.82 70.6477 538.251 70.7812 537.751 71.0483C537.257 71.3097 536.865 71.6733 536.575 72.1392C536.291 72.5994 536.149 73.125 536.149 73.7159V82H534.138ZM543.067 82V68.9091H545.011V70.9545H545.181C545.454 70.2557 545.894 69.7131 546.502 69.3267C547.11 68.9347 547.84 68.7386 548.692 68.7386C549.556 68.7386 550.275 68.9347 550.849 69.3267C551.428 69.7131 551.88 70.2557 552.204 70.9545H552.34C552.675 70.2784 553.178 69.7415 553.849 69.3438C554.519 68.9403 555.323 68.7386 556.261 68.7386C557.431 68.7386 558.388 69.1051 559.133 69.8381C559.877 70.5653 560.249 71.6989 560.249 73.2386V82H558.238V73.2386C558.238 72.2727 557.974 71.5824 557.445 71.1676C556.917 70.7528 556.295 70.5455 555.579 70.5455C554.658 70.5455 553.945 70.8239 553.44 71.3807C552.934 71.9318 552.681 72.6307 552.681 73.4773V82H550.636V73.0341C550.636 72.2898 550.394 71.6903 549.911 71.2358C549.428 70.7756 548.806 70.5455 548.045 70.5455C547.522 70.5455 547.033 70.6847 546.579 70.9631C546.13 71.2415 545.766 71.6278 545.488 72.1222C545.215 72.6108 545.079 73.1761 545.079 73.8182V82H543.067ZM567.779 82.3068C566.95 82.3068 566.197 82.1506 565.521 81.8381C564.844 81.5199 564.308 81.0625 563.91 80.4659C563.512 79.8636 563.313 79.1364 563.313 78.2841C563.313 77.5341 563.461 76.9261 563.756 76.4602C564.052 75.9886 564.447 75.6193 564.941 75.3523C565.435 75.0852 565.981 74.8864 566.577 74.7557C567.18 74.6193 567.785 74.5114 568.393 74.4318C569.188 74.3295 569.833 74.2528 570.327 74.2017C570.827 74.1449 571.191 74.0511 571.418 73.9205C571.651 73.7898 571.768 73.5625 571.768 73.2386V73.1705C571.768 72.3295 571.538 71.6761 571.077 71.2102C570.623 70.7443 569.933 70.5114 569.006 70.5114C568.046 70.5114 567.293 70.7216 566.748 71.142C566.202 71.5625 565.819 72.0114 565.597 72.4886L563.688 71.8068C564.029 71.0114 564.484 70.392 565.052 69.9489C565.626 69.5 566.251 69.1875 566.927 69.0114C567.609 68.8295 568.279 68.7386 568.938 68.7386C569.359 68.7386 569.842 68.7898 570.387 68.892C570.938 68.9886 571.469 69.1903 571.981 69.4972C572.498 69.804 572.927 70.267 573.268 70.8864C573.609 71.5057 573.779 72.3352 573.779 73.375V82H571.768V80.2273H571.665C571.529 80.5114 571.302 80.8153 570.984 81.1392C570.665 81.4631 570.242 81.7386 569.714 81.9659C569.185 82.1932 568.54 82.3068 567.779 82.3068ZM568.086 80.5C568.881 80.5 569.552 80.3438 570.097 80.0312C570.648 79.7188 571.063 79.3153 571.342 78.821C571.626 78.3267 571.768 77.8068 571.768 77.2614V75.4205C571.683 75.5227 571.495 75.6165 571.205 75.7017C570.921 75.7812 570.592 75.8523 570.217 75.9148C569.847 75.9716 569.487 76.0227 569.134 76.0682C568.788 76.108 568.506 76.142 568.29 76.1705C567.768 76.2386 567.279 76.3494 566.825 76.5028C566.376 76.6506 566.012 76.875 565.734 77.1761C565.461 77.4716 565.325 77.875 565.325 78.3864C565.325 79.0852 565.583 79.6136 566.1 79.9716C566.623 80.3239 567.285 80.5 568.086 80.5ZM583.143 68.9091V70.6136H576.359V68.9091H583.143ZM578.337 65.7727H580.348V78.25C580.348 78.8182 580.43 79.2443 580.595 79.5284C580.766 79.8068 580.982 79.9943 581.243 80.0909C581.51 80.1818 581.791 80.2273 582.087 80.2273C582.308 80.2273 582.49 80.2159 582.632 80.1932C582.774 80.1648 582.888 80.142 582.973 80.125L583.382 81.9318C583.246 81.983 583.055 82.0341 582.811 82.0852C582.567 82.142 582.257 82.1705 581.882 82.1705C581.314 82.1705 580.757 82.0483 580.212 81.804C579.672 81.5597 579.223 81.1875 578.865 80.6875C578.513 80.1875 578.337 79.5568 578.337 78.7955V65.7727ZM586.169 82V68.9091H588.18V82H586.169ZM587.192 66.7273C586.8 66.7273 586.462 66.5938 586.178 66.3267C585.899 66.0597 585.76 65.7386 585.76 65.3636C585.76 64.9886 585.899 64.6676 586.178 64.4006C586.462 64.1335 586.8 64 587.192 64C587.584 64 587.919 64.1335 588.197 64.4006C588.482 64.6676 588.624 64.9886 588.624 65.3636C588.624 65.7386 588.482 66.0597 588.197 66.3267C587.919 66.5938 587.584 66.7273 587.192 66.7273ZM597.183 82.2727C596.001 82.2727 594.964 81.9915 594.072 81.429C593.185 80.8665 592.492 80.0795 591.992 79.0682C591.498 78.0568 591.251 76.875 591.251 75.5227C591.251 74.1591 591.498 72.9687 591.992 71.9517C592.492 70.9347 593.185 70.1449 594.072 69.5824C594.964 69.0199 596.001 68.7386 597.183 68.7386C598.364 68.7386 599.398 69.0199 600.285 69.5824C601.177 70.1449 601.87 70.9347 602.364 71.9517C602.864 72.9687 603.114 74.1591 603.114 75.5227C603.114 76.875 602.864 78.0568 602.364 79.0682C601.87 80.0795 601.177 80.8665 600.285 81.429C599.398 81.9915 598.364 82.2727 597.183 82.2727ZM597.183 80.4659C598.08 80.4659 598.819 80.2358 599.398 79.7756C599.978 79.3153 600.407 78.7102 600.685 77.9602C600.964 77.2102 601.103 76.3977 601.103 75.5227C601.103 74.6477 600.964 73.8324 600.685 73.0767C600.407 72.321 599.978 71.7102 599.398 71.2443C598.819 70.7784 598.08 70.5455 597.183 70.5455C596.285 70.5455 595.546 70.7784 594.967 71.2443C594.387 71.7102 593.958 72.321 593.68 73.0767C593.401 73.8324 593.262 74.6477 593.262 75.5227C593.262 76.3977 593.401 77.2102 593.68 77.9602C593.958 78.7102 594.387 79.3153 594.967 79.7756C595.546 80.2358 596.285 80.4659 597.183 80.4659ZM608.196 74.125V82H606.185V68.9091H608.128V70.9545H608.298C608.605 70.2898 609.071 69.7557 609.696 69.3523C610.321 68.9432 611.128 68.7386 612.116 68.7386C613.003 68.7386 613.778 68.9205 614.443 69.2841C615.108 69.642 615.625 70.1875 615.994 70.9205C616.364 71.6477 616.548 72.5682 616.548 73.6818V82H614.537V73.8182C614.537 72.7898 614.27 71.9886 613.736 71.4148C613.202 70.8352 612.469 70.5455 611.537 70.5455C610.895 70.5455 610.321 70.6847 609.815 70.9631C609.315 71.2415 608.92 71.6477 608.631 72.1818C608.341 72.7159 608.196 73.3636 608.196 74.125Z" fill="white"/>
<defs>
<filter id="filter0_d_1269_2834" x="0" y="0" width="705" height="125" filterUnits="userSpaceOnUse" color-interpolation-filters="sRGB">
<feFlood flood-opacity="0" result="BackgroundImageFix"/>
<feColorMatrix in="SourceAlpha" type="matrix" values="0 0 0 0 0 0 0 0 0 0 0 0 0 0 0 0 0 0 127 0" result="hardAlpha"/>
<feOffset dy="5"/>
<feGaussianBlur stdDeviation="10"/>
<feComposite in2="hardAlpha" operator="out"/>
<feColorMatrix type="matrix" values="0 0 0 0 0.360784 0 0 0 0 0.737255 0 0 0 0 0.823529 0 0 0 0.2 0"/>
<feBlend mode="normal" in2="BackgroundImageFix" result="effect1_dropShadow_1269_2834"/>
<feBlend mode="normal" in="SourceGraphic" in2="effect1_dropShadow_1269_2834" result="shape"/>
</filter>
</defs>
</svg>
